{
	"name": "theme_grano1",
	"display_name": "Grano1",
	"version": "1.0.0",
	"author": {
		"name": "Posthemes",
		"email": "",
		"url": "http://posthemes.com/"
	},
	"meta": {
		"compatibility": {
			"from": "1.7.0.0",
			"to": null
		},
		"available_layouts": {
			"layout-full-width": {
				"name": "Full Width",
				"description": "No side columns, ideal for distraction-free pages such as product pages."
			},
			"layout-both-columns": {
				"name": "Three Columns",
				"description": "One large central column and 2 side columns."
			},
			"layout-left-column": {
				"name": "Two Columns, small left column",
				"description": "Two columns with a small left column"
			},
			"layout-right-column": {
				"name": "Two Columns, small right column",
				"description": "Two columns with a small right column"
			}
		}
	},
	"assets": null,
	"global_settings": {
		"configuration": {
			"PS_IMAGE_QUALITY": "png"
		},
		"modules": {
			"to_disable": [
				"welcome",
				"ps_customtext",
				"ps_featuredproducts",
				"ps_bestsellers",
				"ps_imageslider",
				"ps_mainmenu",
				"ps_banner",
				"ps_searchbar"
			],
			"to_enable": [
				"ps_socialfollow",
				"ps_contactinfo",
				"ps_linklist",
				"ps_advertising",
				"ps_categoryproducts",
				"blockreassurance",
				"blocktags",
				"blockwishlist",
				"poscompare",
				"productcomments",
				"posrotatorimg",
				"possearchproducts",
				"posthemeoptions",
				"posmegamenu",
				"posvegamenu",
				"posslideshows",
				"posstaticblocks",
				"posstaticfooter",
				"poslistcategories",
				"postabcateslider",
				"poslistcateproduct",
				"posfeaturedproducts",
				"possuggestcateproducts",
				"posspecialproducts",
				"poscountdown",
				"poslogo",
				"xipblog",
				"xipblogdisplayposts"
			]
		},
		"hooks": {
			"modules_to_hook": {
				"displayBannersequence": [
					"posstaticblocks"
				],
				"displayMegamenu": [
					"posmegamenu",
					"ps_contactinfo"
				],
				"displayHome": [
					"poslistcategories",
					"posspecialproducts",
					"poslistcateproduct",
					"posstaticblocks",
					"postabcateslider"
				],
				"displayContainertop": [
					"posstaticblocks"
				],
				"displayContainertop2": [
					"posstaticblocks"
				],
				"displayFulltop": [
					"posstaticblocks"
				],
				"displayFulltop2": [
					"posstaticblocks"
				],
				"displayContainerbottom": [
					"posstaticblocks",
					"posfeaturedproducts",
					"poslogo",
					"possuggestcateproducts"
				],
				"displayContainerbottom2": [
					"posstaticblocks"
				],
				"displayFullbottom": [
					"posstaticblocks"
				],
				"displayFullbottom2": [
					"posstaticblocks"
				],
				"displayProductListFunctionalButtons": [
					"blockwishlist"
				],
				"displayBeforeBodyClosingTag": [
					"poscompare"
				],
				"displayProductListCompare": [
					"poscompare"
				],
				"displayNav1": [
					"posstaticblocks"
				],
				"displayNav2": [
					"posstaticblocks"
				],
				"displayTopColumn": [
					"posslideshows",
					"posstaticblocks"
				],
				"displayNav": [
					"ps_socialfollow",
					"ps_languageselector",
					"ps_currencyselector",
					"posstaticblocks"
				],
				"displayTop": [
					"posstaticblocks",
					"possearchproducts",
					"ps_customersignin",
					"blockwishlist",
					"poscompare",
					"ps_shoppingcart"
				],
				"displayFooter": [
					"posstaticfooter"
				],
				"displayFooterBefore": [
					"posstaticfooter"
				],
				"displayFooterAfter": [
					"posstaticfooter"
				],
				"displayLeftColumn": [
					"ps_categorytree",
					"ps_facetedsearch",
					"blocktags",
					"ps_advertising"
				],
				"displayProductAdditionalInfo": [
					"blockwishlist",
					"poscompare",
					"ps_sharebuttons"
				],
				"displayFooterTop": [
					"posstaticfooter"
				],
				"displayFooterBottom": [
					"posstaticfooter"
				],
				"displayFooterProduct": [
					"ps_categoryproducts"
				],
				"displayReassurance": [
					"blockreassurance"
				],
				"displayBackOfficeHeader": [
					"posstaticfooter",
					"posstaticblocks"
				]
			}
		},
		"image_types": {
			"cart_default": {
				"width": 125,
				"height": 125,
				"scope": [
					"products"
				]
			},
			"small_default": {
				"width": 98,
				"height": 98,
				"scope": [
					"products",
					"categories",
					"manufacturers",
					"suppliers"
				]
			},
			"medium_default": {
				"width": 452,
				"height": 452,
				"scope": [
					"products",
					"manufacturers",
					"suppliers"
				]
			},
			"home_default": {
				"width": 360,
				"height": 360,
				"scope": [
					"products"
				]
			},
			"large_default": {
				"width": 800,
				"height": 800,
				"scope": [
					"products",
					"manufacturers",
					"suppliers"
				]
			},
			"category_default": {
				"width": 1050,
				"height": 350,
				"scope": [
					"categories"
				]
			},
			"stores_default": {
				"width": 170,
				"height": 115,
				"scope": [
					"stores"
				]
			}
		}
	},
	"theme_settings": {
		"default_layout": "layout-full-width",
		"layouts": {
			"category": "layout-left-column",
			"best-sales": "layout-left-column",
			"new-products": "layout-left-column",
			"prices-drop": "layout-left-column",
			"contact": "layout-left-column",
			"manufacturers": "layout-left-column",
			"search": "layout-left-column",
			"module-xipblog-archive": "layout-left-column",
			"module-xipblog-single": "layout-left-column"
		}
	},
	"dependencies": {
		"modules": [
			"ps_advertising",
			"ps_categoryproducts",
			"blocktags",
			"blockwishlist",
			"poscompare",
			"productcomments",
			"posrotatorimg",
			"possearchproducts",
			"posthemeoptions",
			"posmegamenu",
			"posvegamenu",
			"posslideshows",
			"posstaticblocks",
			"posstaticfooter",
			"poslistcategories",
			"postabcateslider",
			"poslistcateproduct",
			"posfeaturedproducts",
			"possuggestcateproducts",
			"posspecialproducts",
			"poscountdown",
			"poslogo",
			"xipblog",
			"xipblogdisplayposts"
		]
	}
}